NAME,T1C_FR__EXTERNAL_ID__C,T1C_FR__NAME__C,T1C_FR__PERMISSION_REQUIRED__C
AddressManager,ACE.ALM.ApplicationSettings.Toolbar.ActionButtons.Account.AccountManagement.AddressManager:CORE,ACE.ALM.ApplicationSettings.Toolbar.ActionButtons.Account.AccountManagement.AddressManager,FALSE
AddressManager,ACE.ALM.ApplicationSettings.Toolbar.ActionButtons.Contact.ContactManagementGroup.AddressManager:CORE,ACE.ALM.ApplicationSettings.Toolbar.ActionButtons.Contact.ContactManagementGroup.AddressManager,FALSE
